{
    "/js/app.js": "/js/app.js",
    "/js/profile.js": "/js/profile.js",
    "/js/bootstrap.js": "/js/bootstrap.js",
    "/css/app.css": "/css/app.css",
    "/css/backend.css": "/css/backend.css",
    "/js/mysales.js": "/js/mysales.js"
}